<?xml version="1.0" standalone="no"?>
<!DOCTYPE svg PUBLIC "-//W3C//DTD SVG 1.1//EN" "http://www.w3.org/Graphics/SVG/1.1/DTD/svg11.dtd" >
<!--
2018-9-25: Created with FontForge (http://fontforge.org)
-->
<svg xmlns="http://www.w3.org/2000/svg" xmlns:xlink="http://www.w3.org/1999/xlink" version="1.1">
<metadata>
Created by FontForge 20160405 at Tue Sep 25 08:22:10 2018
 By Apache
Copyright (c) 2018, Apache
</metadata>
<defs>
<font id="Flaticon" horiz-adv-x="512" >
  <font-face 
    font-family="Flaticon"
    font-weight="400"
    font-stretch="normal"
    units-per-em="512"
    panose-1="2 0 5 3 0 0 0 0 0 0"
    ascent="448"
    descent="-64"
    bbox="-0.000281688 -64 513.002 448"
    underline-thickness="25.6"
    underline-position="-51.2"
    unicode-range="U+0020-F10D"
  />
    <missing-glyph />
    <glyph glyph-name="space" unicode=" " horiz-adv-x="200" 
 />
    <glyph glyph-name="uniF10D" unicode="&#xf10d;" 
d="M257.669 335.795c36.083 0 65.4531 -29.3691 65.4531 -65.4521c0 -36.084 -29.3701 -65.4531 -65.4531 -65.4531s-65.4531 29.3691 -65.4531 65.4531c0 36.083 29.3701 65.4521 65.4531 65.4521zM257.669 223.591c25.7793 0 46.752 20.9727 46.752 46.752
c0 25.7783 -20.9727 46.752 -46.752 46.752s-46.752 -20.9736 -46.752 -46.752c0 -25.7793 20.9727 -46.752 46.752 -46.752zM382.806 395.479c62.6758 -62.666 70.4648 -180.574 16.6533 -252.302l-143.445 -207.177l-143.659 207.467
c-53.5967 71.4375 -45.8076 189.346 16.8682 252.012c33.8672 33.8672 78.8896 52.5215 126.791 52.5215c47.8936 0 92.9248 -18.6543 126.792 -52.5215zM384.292 154.107c48.8281 65.1064 41.8623 171.589 -14.708 228.149c-30.3418 30.333 -70.6699 47.042 -113.57 47.042
c-42.8994 0 -83.2275 -16.709 -113.561 -47.042c-56.5693 -56.5605 -63.5361 -163.043 -14.9229 -227.859l128.483 -185.54z" />
    <glyph glyph-name="uniF101" unicode="&#xf101;" 
d="M180 -64h-81.9922c-13.6953 0 -24.8359 11.1406 -24.8359 24.8359v184.938h-47.8359c-13.6953 0 -24.8359 11.1445 -24.8359 24.8359v79.2461c0 13.6953 11.1406 24.8359 24.8359 24.8359h47.8359v39.6836c0 39.3477 12.3555 72.8242 35.7266 96.8047
c23.4766 24.0898 56.2852 36.8203 94.8789 36.8203l62.5312 -0.101562c13.6719 -0.0234375 24.793 -11.1641 24.793 -24.8359v-73.5781c0 -13.6953 -11.1367 -24.8359 -24.8281 -24.8359l-42.1016 -0.015625c-12.8398 0 -16.1094 -2.57422 -16.8086 -3.36328
c-1.15234 -1.30859 -2.52344 -5.00781 -2.52344 -15.2227v-31.3516h58.2695c4.38672 0 8.63672 -1.08203 12.2891 -3.12109c7.87891 -4.40234 12.7773 -12.7266 12.7773 -21.7227l-0.03125 -79.2461c0 -13.6875 -11.1406 -24.8281 -24.8359 -24.8281h-58.4688v-184.941
c0 -13.6953 -11.1445 -24.8359 -24.8398 -24.8359zM103.188 -33.9844h71.6328v193.195c0 9.14453 7.44141 16.582 16.582 16.582h66.7266l0.0273438 68.8828h-66.7578c-9.14062 0 -16.5781 7.4375 -16.5781 16.582v44.7891c0 11.7266 1.19141 25.0625 10.043 35.0859
c10.6953 12.1172 27.5508 13.5156 39.3008 13.5156l36.9219 0.015625v63.2266l-57.332 0.09375c-62.0234 0 -100.566 -39.7031 -100.566 -103.609v-53.1172c0 -9.14062 -7.4375 -16.582 -16.5781 -16.582h-56.0938v-68.8828h56.0938
c9.14062 0 16.5781 -7.4375 16.5781 -16.582v-193.195zM266.25 417.883h0.00390625h-0.00390625zM266.25 417.883z" />
    <glyph glyph-name="uniF10A" unicode="&#xf10a;" 
d="M414.543 92.876c-2.03027 0 -4.06152 0.742188 -5.64648 2.24512l-94.9971 89.1191c-3.31836 3.10449 -3.4834 8.33789 -0.363281 11.6562c3.12109 3.35156 8.32129 3.5 11.6729 0.363281l94.9971 -89.1201c3.31836 -3.10352 3.4834 -8.33691 0.363281 -11.6553
c-1.63477 -1.7334 -3.81445 -2.6084 -6.02637 -2.6084zM97.4404 92.876c-2.19531 0 -4.3916 0.875 -6.02637 2.6084c-3.12012 3.31836 -2.95508 8.55176 0.363281 11.6553l95.0303 89.1201c3.33496 3.10352 8.56836 2.97168 11.6729 -0.363281
c3.12012 -3.31836 2.95508 -8.55176 -0.363281 -11.6562l-95.0303 -89.1191c-1.58496 -1.50293 -3.61621 -2.24512 -5.64648 -2.24512zM470.726 10.0127h-429.451c-22.75 0 -41.2744 18.5078 -41.2744 41.2744v281.442c0 22.7666 18.5244 41.2734 41.2744 41.2734h429.451
c22.75 0 41.2744 -18.5068 41.2744 -41.2734v-281.442c0 -22.7666 -18.5244 -41.2744 -41.2744 -41.2744zM41.2744 357.493c-13.6533 0 -24.7646 -11.1104 -24.7646 -24.7637v-281.442c0 -13.6533 11.1113 -24.7646 24.7646 -24.7646h429.451
c13.6533 0 24.7646 11.1113 24.7646 24.7646v281.442c0 13.6533 -11.1113 24.7637 -24.7646 24.7637h-429.451zM256 150.527c-10.9785 0 -21.958 3.64844 -30.3115 10.9297l-211.985 184.926c-3.43359 2.98828 -3.79688 8.20508 -0.808594 11.6553
c3.02051 3.43457 8.22168 3.74805 11.6553 0.792969l211.985 -184.909c10.5498 -9.19629 28.3799 -9.19629 38.9131 0l211.721 184.612c3.41797 2.98828 8.61816 2.65723 11.6562 -0.792969c2.98828 -3.4502 2.6416 -8.65137 -0.791992 -11.6562l-211.722 -184.611
c-8.37012 -7.29785 -19.333 -10.9463 -30.3115 -10.9463z" />
    <glyph glyph-name="uniF105" unicode="&#xf105;" 
d="M409.72 82.0137c26.2393 -13.124 42.5469 -39.5088 42.5469 -68.8467v-25.9668c0 -40.499 -128.384 -51.2002 -196.267 -51.2002s-196.267 10.7012 -196.267 51.2002v27.6309c0 28.1943 15.3682 54.084 40.124 67.5928l76.126 41.5225
c7.24414 3.95996 11.75 11.5371 11.75 19.7979v28.2363c-5.71777 7.48438 -22.0762 30.8057 -29.8926 61.7559c-8.05566 6.45996 -12.7744 16.1455 -12.7744 26.5303v34.1338c0 8.2168 3.07227 16.1787 8.5332 22.3994v45.3887
c-0.477539 4.69336 -2.35449 32.6406 17.8525 55.6885c17.5273 19.9854 45.9688 30.123 84.5479 30.123s67.0205 -10.1377 84.5479 -30.1309c20.207 -23.0488 18.3301 -50.9873 17.8525 -55.6807v-45.3887c5.46094 -6.2207 8.5332 -14.1826 8.5332 -22.3994v-34.1338
c0 -13.4395 -7.81641 -25.3438 -19.8574 -30.8652c-6.16113 -17.9287 -14.6348 -34.5508 -25.207 -49.4844c-2.125 -3.00391 -4.18164 -5.72559 -6.13574 -8.11523v-28.8516c0 -8.60156 4.77832 -16.333 12.4668 -20.1807zM435.2 -12.7998v25.9668
c0 22.8438 -12.6895 43.375 -33.1182 53.5889l-81.5186 40.7559c-13.5088 6.75781 -21.8965 20.335 -21.8965 35.4385v35.2002l2.12402 2.42383c2.14258 2.43164 4.6084 5.61426 7.14258 9.20703c10.3428 14.5918 18.4746 30.9932 24.1836 48.751l1.36523 4.22363
l4.25 1.30566c7.25293 2.23633 12.1338 8.75586 12.1338 16.2051v34.1338c0 4.78711 -2.03027 9.25 -5.7168 12.5781l-2.81641 2.54297l0.0771484 54.2627c0.0166016 0.205078 2.76465 24.2354 -13.8496 43.0166c-14.1572 16.0176 -38.2383 24.1328 -71.5605 24.1328
c-33.4424 0 -57.5742 -8.1748 -71.7139 -24.3027c-16.623 -18.9619 -13.7217 -42.6162 -13.6963 -42.8467l0.0771484 -1.11719v-53.1455l-2.81641 -2.53516c-3.68652 -3.33594 -5.7168 -7.79883 -5.7168 -12.5859v-34.1338c0 -5.76855 2.95215 -11.1191 7.89258 -14.3105
l2.91016 -1.87695l0.776367 -3.37891c7.97852 -34.7393 28.8936 -60.041 29.0986 -60.2881l1.98828 -2.37305v-34.2949c0 -14.498 -7.91016 -27.8359 -20.6504 -34.791l-76.126 -41.5225c-19.2598 -10.4961 -31.2236 -30.6602 -31.2236 -52.5996v-27.6309
c0 -11.5801 63.249 -34.1338 179.2 -34.1338s179.2 22.5537 179.2 34.1338z" />
    <glyph glyph-name="uniF108" unicode="&#xf108;" 
d="M507.597 214.374c3.54395 -3.29883 3.75391 -8.85156 0.447266 -12.3955c-1.71973 -1.85938 -4.06152 -2.79785 -6.42188 -2.79785c-2.14062 0 -4.28906 0.771484 -5.97363 2.3418l-29.1152 27.0361v-292.559h-140.358h-140.358h-140.358v292.55l-29.1152 -27.0361
c-3.54395 -3.29004 -9.11426 -3.08789 -12.3955 0.456055c-3.29785 3.55273 -3.08789 9.10547 0.456055 12.4043l251.593 233.626zM203.361 -46.4551h105.269v140.358c0 29.0273 -23.6064 52.6338 -52.6338 52.6338c-29.0283 0 -52.6348 -23.6064 -52.6348 -52.6338
v-140.358zM448.988 -46.4551v291.305l-192.992 179.211l-192.993 -179.211v-291.305h122.813v140.358c0 38.6943 31.4844 70.1787 70.1797 70.1787c38.6943 0 70.1787 -31.4844 70.1787 -70.1787v-140.358h122.813z" />
    <glyph glyph-name="uniF100" unicode="&#xf100;" 
d="M214.686 45.1709c24.8281 0 45.0283 -20.2002 45.0293 -45.0283c0 -24.8291 -20.2002 -45.0293 -45.0293 -45.0293s-45.0293 20.2002 -45.0293 45.0293c0 24.8281 20.2002 45.0283 45.0293 45.0283zM214.686 -19.7432c10.9648 0 19.8867 8.91992 19.8867 19.8877
c0 10.9648 -8.92188 19.8867 -19.8867 19.8867s-19.8867 -8.9209 -19.8867 -19.8867s8.9209 -19.8877 19.8867 -19.8877zM372.631 45.1709c24.8281 0 45.0283 -20.2002 45.0293 -45.0283c0 -24.8291 -20.2002 -45.0293 -45.0293 -45.0293s-45.0293 20.2002 -45.0293 45.0293
c0 24.8281 20.2002 45.0283 45.0293 45.0283zM372.631 -19.7432c10.9648 0 19.8867 8.91992 19.8867 19.8877c0 10.9648 -8.9209 19.8867 -19.8867 19.8867c-10.9648 0 -19.8867 -8.9209 -19.8867 -19.8867s8.9209 -19.8877 19.8867 -19.8877zM383.717 282.245
c6.94336 0 12.5713 -5.62793 12.5713 -12.5713s-5.62793 -12.5713 -12.5713 -12.5713h-180.149c-6.94238 0 -12.5713 5.62793 -12.5713 12.5713c0 6.94238 5.62793 12.5713 12.5713 12.5713h180.149zM373.912 216.965c6.94141 0 12.5693 -5.62891 12.5693 -12.5713
c0 -6.94336 -5.62793 -12.5713 -12.5703 -12.5713h-160.538c-6.94238 0 -12.5703 5.62793 -12.5703 12.5713s5.62793 12.5713 12.5703 12.5713h160.539zM506.342 338.256c4.79492 -5.88281 6.66699 -13.5225 5.13574 -20.9541l-35.1631 -170.676
c-2.39453 -11.6279 -12.752 -20.0674 -24.624 -20.0674h-310.893l7.39941 -35.916h301.166c6.94238 0 12.5703 -5.62793 12.5703 -12.5713s-5.62793 -12.5713 -12.5703 -12.5713h-301.167c-11.873 0 -22.2295 8.44043 -24.625 20.0684l-60.8262 295.262l-55.1777 23.9512
c-6.36719 2.7627 -9.29004 10.167 -6.52441 16.5371c2.7627 6.36719 10.166 9.29102 16.5361 6.52344l55.1768 -23.9502c7.50098 -3.25684 12.9629 -9.98047 14.6143 -17.9883l7.9082 -38.3896h391.574c7.5918 0 14.6953 -3.37402 19.4893 -9.25781zM451.69 151.698
l35.1611 170.674l-386.394 0.000976562l35.1611 -170.675h316.071z" />
    <glyph glyph-name="uniF109" unicode="&#xf109;" 
d="M507.597 214.374c3.54395 -3.29883 3.75391 -8.85156 0.456055 -12.3955c-1.71973 -1.85938 -4.06152 -2.79785 -6.42188 -2.79785c-2.14062 0 -4.28906 0.771484 -5.97363 2.3418l-29.1152 27.0361v-292.559h-140.358h-140.358h-140.358v292.55l-29.1152 -27.0361
c-3.56152 -3.29004 -9.11426 -3.08789 -12.4043 0.456055c-3.29785 3.55273 -3.08789 9.10547 0.456055 12.4043l251.593 233.626l87.7236 -81.46v34.3965h87.7236v-115.849zM361.265 383.392v-33.1426l52.6338 -48.8701v82.0127h-52.6338zM203.361 -46.4551h105.269
v184.772c0 4.53516 -3.68457 8.21973 -8.21973 8.21973h-88.8291c-4.53516 0 -8.21973 -3.68457 -8.21973 -8.21973v-184.772zM448.988 -46.4551v291.313l-17.5449 16.29v0l-50.1777 46.5898l-125.27 116.322l-192.993 -179.211v-291.305h122.813v184.772
c0 14.2109 11.5537 25.7646 25.7646 25.7646h88.8291c14.2109 0 25.7646 -11.5537 25.7646 -25.7646v-184.772h122.813z" />
    <glyph glyph-name="uniF10C" unicode="&#xf10c;" 
d="M258.963 225.481c-32.3096 0 -58.5928 26.292 -58.5928 58.5928c0 32.3018 26.292 58.5928 58.5928 58.5928c32.3018 0 58.5928 -26.291 58.5928 -58.5928c0 -32.3008 -26.291 -58.5928 -58.5928 -58.5928zM258.963 325.926
c-23.0771 0 -41.8516 -18.7744 -41.8516 -41.8516s18.7744 -41.8516 41.8516 -41.8516s41.8525 18.7744 41.8525 41.8516s-18.7754 41.8516 -41.8525 41.8516zM420.327 133.407l91.6729 -192.519h-512l91.6729 192.51h62.8867l-25.6807 37.0898
c-47.9795 63.9492 -41.0068 169.5 15.1006 225.599c30.3174 30.3174 70.6289 47.0166 113.502 47.0166c42.8818 0 83.1934 -16.6992 113.503 -47.0166c56.1064 -56.0986 63.0791 -161.641 14.9072 -225.85l-25.5049 -36.8301h59.9404zM142.464 180.281l32.4609 -46.874v0
l82.5566 -119.22l114.842 165.843c43.71 58.2744 37.4746 153.597 -13.167 204.229c-27.1611 27.1533 -63.2627 42.1113 -101.666 42.1113s-74.5137 -14.958 -101.667 -42.1113c-50.6406 -50.6328 -56.877 -145.946 -13.3594 -203.979zM102.253 116.666l-75.7354 -159.037
h458.965l-75.7354 159.037h-60.9443l-91.3213 -131.892l-91.3291 131.892h-63.8994z" />
    <glyph glyph-name="uniF106" unicode="&#xf106;" 
d="M230.792 93.6865c-10.9268 7.94824 -17.459 20.5215 -17.459 34.3135c0 23.5312 19.1348 42.667 42.667 42.667s42.667 -19.1357 42.667 -42.667c0 -13.792 -6.53125 -26.3652 -17.458 -34.3135l6.72949 -60.5098
c0.333984 -3.01074 -0.635742 -6.03223 -2.65625 -8.29199c-2.02148 -2.25977 -4.91699 -3.55176 -7.94824 -3.55176h-42.667c-3.03125 0 -5.92676 1.29199 -7.94824 3.55176c-2.02051 2.26172 -2.98828 5.28223 -2.65527 8.29199zM256 149.333
c-11.7598 0 -21.333 -9.57324 -21.332 -21.333c0 -8.17676 4.64648 -15.5 12.125 -19.125c4.07324 -1.97852 6.45801 -6.29102 5.95801 -10.7812l-6.16699 -55.4268h18.833l-6.16699 55.4268c-0.5 4.48926 1.88477 8.80273 5.95801 10.7812
c7.47852 3.625 12.125 10.9482 12.125 19.125c0 11.7598 -9.57324 21.333 -21.333 21.333zM437.333 256c5.89551 0 10.667 -4.77148 10.667 -10.667v-266.666c0 -23.5322 -19.1348 -42.667 -42.666 -42.667h-298.667c-23.5322 0 -42.667 19.1348 -42.667 42.666v266.667
c0 5.89551 4.77148 10.667 10.667 10.667h32v42.667c0 82.3428 66.9893 149.333 149.333 149.333s149.333 -66.9902 149.333 -149.333v-42.667h32zM128 298.667v-42.667h21.333v42.667c0 58.8115 47.8535 106.667 106.667 106.667s106.667 -47.8535 106.667 -106.667
v-42.667h21.333v42.667c0 70.583 -57.417 128 -128 128s-128 -57.417 -128 -128zM341.333 298.667c0 47.0518 -38.2812 85.333 -85.333 85.333s-85.333 -38.2812 -85.333 -85.333v-42.667h170.666v42.667zM426.667 -21.333v256h-341.333v-256
c0 -11.7598 9.57324 -21.333 21.333 -21.333h298.667c11.7598 0 21.333 9.57324 21.333 21.333z" />
    <glyph glyph-name="uniF107" unicode="&#xf107;" 
d="M499.801 -47.6348c3.69238 -3.84668 3.57617 -9.96582 -0.270508 -13.668c-1.875 -1.79785 -4.28223 -2.69727 -6.69922 -2.69727c-2.54199 0 -5.0752 0.986328 -6.96973 2.96777l-143.983 149.745c-35.1475 -29.1445 -80.2422 -46.709 -129.378 -46.709
c-111.938 0 -202.998 91.0586 -202.998 202.998c0 111.938 91.0596 202.998 202.998 202.998c111.939 0 202.999 -91.0596 202.999 -202.998c0 -55.8633 -22.6973 -106.517 -59.334 -143.259zM212.5 61.3369c101.268 0 183.665 82.3887 183.665 183.665
s-82.3877 183.665 -183.665 183.665c-101.276 0 -183.665 -82.3887 -183.665 -183.665s82.3887 -183.665 183.665 -183.665z" />
    <glyph glyph-name="uniF103" unicode="&#xf103;" 
d="M75 -64c-41.3555 0 -75 33.6445 -75 75v362c0 41.3555 33.6445 75 75 75h362c41.3555 0 75 -33.6445 75 -75v-362c0 -41.3555 -33.6445 -75 -75 -75h-362zM30 373v-362c0 -24.8125 20.1875 -45 45 -45h362c24.8125 0 45 20.1875 45 45v362c0 24.8125 -20.1875 45 -45 45
h-362c-24.8125 0 -45 -20.1875 -45 -45zM30 373zM256 57c-74.4375 0 -135 60.5625 -135 135s60.5625 135 135 135s135 -60.5625 135 -135s-60.5625 -135 -135 -135zM256 297c-57.8984 0 -105 -47.1016 -105 -105s47.1016 -105 105 -105s105 47.1016 105 105
s-47.1016 105 -105 105zM256 297zM406 297c-24.8125 0 -45 20.1875 -45 45s20.1875 45 45 45s45 -20.1875 45 -45s-20.1875 -45 -45 -45zM406 357c-8.26953 0 -15 -6.73047 -15 -15s6.73047 -15 15 -15s15 6.73047 15 15s-6.73047 15 -15 15zM406 357z" />
    <glyph glyph-name="uniF104" unicode="&#xf104;" 
d="M509.066 353.623c2.60742 -2.60742 3.47656 -6.95215 2.6084 -10.4297c-7.82129 -25.2012 -23.4639 -43.4512 -42.583 -53.0107v-2.60742c0 -167.724 -125.141 -304.162 -278.091 -304.162c-86.0342 0 -155.557 14.7744 -186.842 39.9766
c-3.47656 3.47559 -5.21484 7.82129 -3.47656 13.0352c1.73828 4.3457 6.08301 7.82129 11.2979 7.82129c51.2725 0.869141 84.2959 13.0352 109.497 27.8096c-48.666 6.08398 -79.082 29.5469 -94.7246 73.8682c-1.73828 4.3457 0 8.68945 3.47656 11.2969
c3.47559 2.6084 8.68945 2.6084 12.166 0.869141c13.0352 -8.69043 26.0713 -10.4287 41.7129 -10.4287c-33.0225 19.9873 -63.4395 53.0117 -75.6055 93.8555c-0.869141 4.3457 0.869141 9.55859 4.3457 11.2979c4.34473 2.60645 8.69043 1.7373 12.166 -0.869141
c9.55957 -7.82129 19.9883 -13.0361 35.6309 -15.6426c-33.8926 34.7617 -54.749 86.0342 -25.2021 142.521l5.21484 10.4287l8.68848 -8.69043c53.8799 -56.4873 103.415 -82.5576 193.795 -99.9385v3.47559c0 63.4395 49.5342 115.582 111.236 116.451
c24.332 0 58.2246 -17.3809 72.1289 -25.2021c0.870117 0 1.73926 -0.869141 1.73926 0c17.3809 5.21289 38.2373 13.9033 62.5693 24.333c3.47754 1.7373 7.82227 0.868164 10.4297 -1.73926s3.47656 -6.08301 1.73828 -10.4287
c-4.3457 -12.166 -11.2969 -25.2021 -21.7266 -37.3682l17.3809 6.08398c3.47754 0.869141 7.82227 0 10.4287 -2.60645zM456.925 304.088c16.5117 6.08301 26.0713 19.1182 32.1543 30.4141l-33.8916 -11.2969c-4.3457 -1.73828 -9.55859 0 -11.2979 4.3457
c-1.73828 4.34473 -0.869141 9.55957 2.60742 12.166c13.9033 11.2979 24.332 23.4648 32.1533 36.5c-17.3809 -6.95215 -33.0225 -13.0352 -46.0586 -17.3809c-5.21289 -1.7373 -10.4277 -0.868164 -15.6426 1.73828c-9.55859 5.21484 -42.582 23.4648 -62.5693 22.5957
c-52.1426 -0.869141 -93.8555 -45.1904 -93.8555 -99.0703v-24.333l-10.4297 1.73926c-95.5928 17.3799 -148.604 42.582 -204.223 97.3311c-26.0713 -66.0469 27.8086 -112.105 46.0586 -125.141l21.7256 -15.6436h-26.9404c-17.3809 0 -36.499 1.73828 -53.8799 9.55957
c19.1191 -39.9746 58.2256 -69.5225 91.249 -79.082l-2.60742 -17.3809c-6.95117 0 -13.9043 0 -20.8564 -0.869141c-18.25 -0.869141 -34.7617 -0.869141 -50.4033 4.3457c17.3809 -33.0234 47.7969 -46.9277 97.3311 -46.9277h26.0713l-21.7256 -15.6426
c-26.9404 -20.8564 -61.7021 -39.9756 -121.665 -44.3213c28.6777 -13.9043 81.6875 -26.9404 160.771 -26.9404c143.39 0 260.71 128.617 260.71 286.781v14.7744z" />
    <glyph glyph-name="uniF102" unicode="&#xf102;" 
d="M121.69 194.333l-121.69 47.2832l513.002 205.883l-102.908 -442.172l-141.812 112.724l-82.9121 -82.916zM81.6787 242.066l50.0703 -19.4561l194.454 117.593zM369.777 331.491l-217.926 -131.785l36.1055 -90.2617l19.5225 73.5693zM219.632 111.832l25.0098 25.0098
l-15.1738 12.0586zM391.624 58.333l74.6621 320.786l-222.337 -203.405zM391.624 58.333z" />
    <glyph glyph-name="uniF10B" unicode="&#xf10b;" 
d="M498.565 53.0195c13.4014 -8.91016 17.4209 -26.7891 9.12109 -40.5791l-26.0566 -43.3086c-8 -13.6201 -20.9658 -23.6104 -36.1758 -27.874c-13.0723 -3.53418 -26.5605 -5.2959 -40.1016 -5.23828c-58.8369 0 -144.439 30.9209 -259.426 145.898
c-144.551 144.568 -156.29 242.695 -140.686 299.553c4.26855 15.207 14.2578 28.1709 27.874 36.1758l43.334 26.0312c13.7871 8.28809 31.6543 4.2666 40.5605 -9.12988l69.1094 -103.631c8.69043 -13.1543 5.82324 -30.7783 -6.58691 -40.502l-38.7861 -30.1768
c-5.11719 -3.91113 -6.57324 -10.9932 -3.41211 -16.6035l3.14844 -5.74219c10.375 -19.001 23.3184 -42.7031 71.0381 -90.4404c47.7197 -47.7363 71.4043 -60.6533 90.4395 -71.0293l5.74219 -3.16504c5.6123 -3.11816 12.6641 -1.63379 16.5439 3.48145l30.1865 38.8125
c9.72266 12.415 27.3506 15.2773 40.502 6.57715zM492.984 21.1953c3.60449 5.98145 1.86035 13.7402 -3.95703 17.6016l-103.621 69.1094c-5.70898 3.76953 -13.3535 2.53125 -17.5771 -2.84961l-30.1768 -38.7949c-9.02832 -11.8066 -25.3633 -15.1768 -38.3271 -7.90918
l-5.60449 3.08887c-19.9902 10.9033 -44.8613 24.4609 -94.3564 73.9473c-49.4941 49.4863 -63.0518 74.3652 -73.9561 94.3643l-3.08008 5.59766c-7.26953 12.9639 -3.89746 29.2988 7.9082 38.3262l38.7959 30.1777c5.38281 4.22266 6.62305 11.8701 2.84961 17.5762
l-31.5098 47.2588l-37.541 56.3633c-3.86426 5.8125 -11.6191 7.55762 -17.6016 3.95801l-43.335 -25.9971c-9.84277 -5.75293 -17.0791 -15.0908 -20.1943 -26.0566c-14.4111 -52.498 -2.47559 -144.192 136.299 -282.967c138.773 -138.774 230.477 -150.71 282.966 -136.3
c10.9531 3.1123 20.2783 10.3398 26.0225 20.1699zM290.118 362.623c-4.71289 0 -8.53223 3.81934 -8.53223 8.53125c0 4.71289 3.81934 8.53223 8.53223 8.53223c89.4893 -0.0986328 162.01 -72.6191 162.108 -162.109c0 -4.71191 -3.81934 -8.53125 -8.53125 -8.53125
c-4.71289 0 -8.53223 3.81934 -8.53223 8.53125c-0.0898438 80.0693 -64.9756 144.956 -145.045 145.046zM290.118 311.431c-4.71289 0 -8.53223 3.81934 -8.53223 8.53125s3.81934 8.53223 8.53223 8.53223c61.2275 -0.0703125 110.846 -49.6885 110.916 -110.917
c0 -4.71191 -3.81934 -8.53125 -8.53125 -8.53125s-8.53223 3.81934 -8.53223 8.53125c-0.0605469 51.8086 -42.0449 93.792 -93.8525 93.8535zM290.118 260.238c-4.71289 0 -8.53223 3.81934 -8.53223 8.53125s3.81934 8.53223 8.53223 8.53223
c32.9688 -0.0371094 59.6855 -26.7559 59.7236 -59.7246c0 -4.71191 -3.82031 -8.53125 -8.53125 -8.53125c-4.71191 0 -8.53223 3.81934 -8.53223 8.53125c-0.0283203 23.5498 -19.1123 42.6328 -42.6602 42.6611z" />
  </font>
</defs></svg>
